Data Visualization – Introduction to Data Analysis with R and Bioconductor
…
genes_selected <- rna_fc$gene[1:10]

sub_rna <- rna %>%
    filter(gene %in% genes_selected)

mean_exp_by_time <- sub_rna %>%
  group_by(gene,time) %>%
    summarize(mean_exp = mean(expression_log))

`summarise()` has grouped output by 'gene'. You can override using the
`.groups` argument.

mean_exp_by_time

# A tibble: 30 × 3
# Groups:   gene [10]
   gene   time mean_exp
   <chr> <int>    <dbl>
 1 Acr       0     5.07
 2 Acr       4     5.54
 3 Acr       8     7.31
 4 Aipl1     0     3.70
 5 Aipl1     4     3.89
 6 Aipl1     8     6.56
 7 Bst1      0     3.20
 8 Bst1      4     3.77
 9 Bst1      8     5.22
10 Chil3     0     4.00
# ℹ 20 more rows
…
Now we would like to split the line in each plot by the sex of the mice. To do that we need to calculate the mean expression in the data frame grouped by gene, time, and sex:

mean_exp_by_time_sex <- sub_rna %>%
  group_by(gene, time, sex) %>%
    summarize(mean_exp = mean(expression_log))

`summarise()` has grouped output by 'gene', 'time'. You can override using the
`.groups` argument.

mean_exp_by_time_sex

# A tibble: 60 × 4
# Groups:   gene, time [30]
   gene   time sex    mean_exp
   <chr> <int> <chr>     <dbl>
 1 Acr       0 Female     5.13
 2 Acr       0 Male       5.00
 3 Acr       4 Female     5.93
 4 Acr       4 Male       5.15
 5 Acr       8 Female     7.27
 6 Acr       8 Male       7.36
 7 Aipl1     0 Female     3.67
 8 Aipl1     0 Male       3.73
 9 Aipl1     4 Female     4.07
10 Aipl1     4 Male       3.72
# ℹ 50 more rows
…
